dist/dotProd.vcd
$date
	Sun Jul  5 13:50:54 2020
$end
$version
	Icarus Verilog
$end
$timescale
	1s
$end
$scope module top $end
$scope module main $end
$var wire 1 ! clk $end
$var wire 1 " controlArr $end
$var wire 10 # controlArrAddr_a [9:0] $end
$var wire 32 $ controlArrRData_a [31:0] $end
$var wire 32 % controlArrWData_a [31:0] $end
$var wire 1 & controlArrWEnable_a $end
$var wire 64 ' init_acc [63:0] $end
$var wire 64 ( init_i [63:0] $end
$var wire 1 ) r_enable $end
$var wire 64 * out0_Bin2 [63:0] $end
$var wire 10 + out0_Bin1 [9:0] $end
$var wire 1 , out0_Bin0 $end
$var wire 32 - in1_Bin2 [31:0] $end
$var wire 1 . in1_Bin1 $end
$var wire 10 / in1_Bin0 [9:0] $end
$var wire 64 0 in0_Bin2 [63:0] $end
$var wire 10 1 in0_Bin1 [9:0] $end
$var wire 10 2 in0_Bin0 [9:0] $end
$var wire 1 3 arrWEnable_a $end
$var wire 32 4 arrWData_a [31:0] $end
$var wire 32 5 arrRData_a [31:0] $end
$var wire 10 6 arrAddr_a [9:0] $end
$var reg 4 7 linkreg [3:0] $end
$var reg 64 8 reg0 [63:0] $end
$var reg 64 9 reg1 [63:0] $end
$var reg 64 : reg2 [63:0] $end
$var reg 64 ; reg3 [63:0] $end
$var reg 64 < result [63:0] $end
$var reg 4 = state [3:0] $end
$var reg 1 > w_enable $end
$scope module arr_a $end
$var wire 10 ? arrAddr_a [9:0] $end
$var wire 32 @ arrRData_a [31:0] $end
$var wire 32 A arrWData_a [31:0] $end
$var wire 1 3 arrWEnable_a $end
$var wire 1 ! clk $end
$upscope $end
$upscope $end
$upscope $end
$enddefinitions $end
#0
$dumpvars
bx A
bx @
bx ?
x>
bx =
bx <
bx ;
bx :
bx 9
bx 8
bx 7
bx 6
bx 5
bx 4
x3
bx 2
bx 1
bx 0
bx /
x.
bx -
x,
bx +
bx *
x)
b0 (
b0 '
x&
bx %
bz $
bx #
1"
0!
$end
#1
b1001001000010101001101010010010 4
b1001001000010101001101010010010 A
b0 6
b0 ?
13
b1001001000010101001101010010010 %
b0 #
1&
#2
b1001001000010101001101010010010 5
b1001001000010101001101010010010 @
1!
#4
0!
#5
b100000010001001010111101000000 4
b100000010001001010111101000000 A
bx 5
bx @
b1 6
b1 ?
b100000010001001010111101000000 %
b1 #
#6
b100000010001001010111101000000 5
b100000010001001010111101000000 @
1!
#8
0!
#9
b10010000100110101100000100 4
b10010000100110101100000100 A
bx 5
bx @
b10 6
b10 ?
b10010000100110101100000100 %
b10 #
#10
b10010000100110101100000100 5
b10010000100110101100000100 @
1!
#12
0!
#13
b11000111110000010101100110001 4
b11000111110000010101100110001 A
bx 5
bx @
b11 6
b11 ?
b11000111110000010101100110001 %
b11 #
#14
b11000111110000010101100110001 5
b11000111110000010101100110001 @
1!
#16
0!
#17
b1000011010111001011110110000110 4
b1000011010111001011110110000110 A
bx 5
bx @
b100 6
b100 ?
b1000011010111001011110110000110 %
b100 #
#18
b1000011010111001011110110000110 5
b1000011010111001011110110000110 @
1!
#20
0!
#21
b1100011011011111100110011000110 4
b1100011011011111100110011000110 A
bx 5
bx @
b101 6
b101 ?
b1100011011011111100110011000110 %
b101 #
#22
b1100011011011111100110011000110 5
b1100011011011111100110011000110 @
1!
#24
0!
#25
b11001011000010100001000110010 4
b11001011000010100001000110010 A
bx 5
bx @
b110 6
b110 ?
b11001011000010100001000110010 %
b110 #
#26
b11001011000010100001000110010 5
b11001011000010100001000110010 @
1!
#28
0!
#29
b100100110111010100100001001 4
b100100110111010100100001001 A
bx 5
bx @
b111 6
b111 ?
b100100110111010100100001001 %
b111 #
#30
b100100110111010100100001001 5
b100100110111010100100001001 @
1!
#32
0!
#33
b1000000011110011111000110000000 4
b1000000011110011111000110000000 A
bx 5
bx @
b1000 6
b1000 ?
b1000000011110011111000110000000 %
b1000 #
#34
b1000000011110011111000110000000 5
b1000000011110011111000110000000 @
1!
#36
0!
#37
b1000011011010111110011010000110 4
b1000011011010111110011010000110 A
bx 5
bx @
b1001 6
b1001 ?
b1000011011010111110011010000110 %
b1001 #
#38
b1000011011010111110011010000110 5
b1000011011010111110011010000110 @
1!
#40
0!
#41
b1011101100100011111100010111011 4
b1011101100100011111100010111011 A
bx 5
bx @
b1010 6
b1010 ?
b1011101100100011111100010111011 %
b1010 #
#42
b1011101100100011111100010111011 5
b1011101100100011111100010111011 @
1!
#44
0!
#45
b1001111010001101110011010011110 4
b1001111010001101110011010011110 A
bx 5
bx @
b1011 6
b1011 ?
b1001111010001101110011010011110 %
b1011 #
#46
b1001111010001101110011010011110 5
b1001111010001101110011010011110 @
1!
#48
0!
#49
b1111011011010100010101111110110 4
b1111011011010100010101111110110 A
bx 5
bx @
b1100 6
b1100 ?
b1111011011010100010101111110110 %
b1100 #
#50
b1111011011010100010101111110110 5
b1111011011010100010101111110110 @
1!
#52
0!
#53
b1100011000101101111101111000110 4
b1100011000101101111101111000110 A
bx 5
bx @
b1101 6
b1101 ?
b1100011000101101111101111000110 %
b1101 #
#54
b1100011000101101111101111000110 5
b1100011000101101111101111000110 @
1!
#56
0!
#57
b1111110011111101111010011111100 4
b1111110011111101111010011111100 A
bx 5
bx @
b1110 6
b1110 ?
b1111110011111101111010011111100 %
b1110 #
#58
b1111110011111101111010011111100 5
b1111110011111101111010011111100 @
1!
#60
0!
#61
b110001100110111001001001100011 4
b110001100110111001001001100011 A
bx 5
bx @
b1111 6
b1111 ?
b110001100110111001001001100011 %
b1111 #
#62
b110001100110111001001001100011 5
b110001100110111001001001100011 @
1!
#64
0!
#65
b110001011110111100001001100010 4
b110001011110111100001001100010 A
bx 5
bx @
b10000 6
b10000 ?
b110001011110111100001001100010 %
b10000 #
#66
b110001011110111100001001100010 5
b110001011110111100001001100010 @
1!
#68
0!
#69
b101010100010011110100101010101 4
b101010100010011110100101010101 A
bx 5
bx @
b10001 6
b10001 ?
b101010100010011110100101010101 %
b10001 #
#70
b101010100010011110100101010101 5
b101010100010011110100101010101 @
1!
#72
0!
#73
b1111001010101111111101111110010 4
b1111001010101111111101111110010 A
bx 5
bx @
b10010 6
b10010 ?
b1111001010101111111101111110010 %
b10010 #
#74
b1111001010101111111101111110010 5
b1111001010101111111101111110010 @
1!
#76
0!
#77
b11101111010010011100100111011 4
b11101111010010011100100111011 A
bx 5
bx @
b10011 6
b10011 ?
b11101111010010011100100111011 %
b10011 #
#78
b11101111010010011100100111011 5
b11101111010010011100100111011 @
1!
#80
0!
#81
b100100110010110101100001001 4
b100100110010110101100001001 A
bx 5
bx @
b10100 6
b10100 ?
b100100110010110101100001001 %
b10100 #
#82
b100100110010110101100001001 5
b100100110010110101100001001 @
1!
#84
0!
#85
b1100011111101100110110111000111 4
b1100011111101100110110111000111 A
bx 5
bx @
b10101 6
b10101 ?
b1100011111101100110110111000111 %
b10101 #
#86
b1100011111101100110110111000111 5
b1100011111101100110110111000111 @
1!
#88
0!
#89
b1111100100110000011010011111001 4
b1111100100110000011010011111001 A
bx 5
bx @
b10110 6
b10110 ?
b1111100100110000011010011111001 %
b10110 #
#90
b1111100100110000011010011111001 5
b1111100100110000011010011111001 @
1!
#92
0!
#93
b110011101110110100101101100111 4
b110011101110110100101101100111 A
bx 5
bx @
b10111 6
b10111 ?
b110011101110110100101101100111 %
b10111 #
#94
b110011101110110100101101100111 5
b110011101110110100101101100111 @
1!
#96
0!
#97
b111010000000000011110101110100 4
b111010000000000011110101110100 A
bx 5
bx @
b11000 6
b11000 ?
b111010000000000011110101110100 %
b11000 #
#98
b111010000000000011110101110100 5
b111010000000000011110101110100 @
1!
#100
0!
#101
b110001011001010010011101100010 4
b110001011001010010011101100010 A
bx 5
bx @
b11001 6
b11001 ?
b110001011001010010011101100010 %
b11001 #
#102
b110001011001010010011101100010 5
b110001011001010010011101100010 @
1!
#104
0!
#105
b1010111001011000010010010101110 4
b1010111001011000010010010101110 A
bx 5
bx @
b11010 6
b11010 ?
b1010111001011000010010010101110 %
b11010 #
#106
b1010111001011000010010010101110 5
b1010111001011000010010010101110 @
1!
#108
0!
#109
b101111010001110001010001011110 4
b101111010001110001010001011110 A
bx 5
bx @
b11011 6
b11011 ?
b101111010001110001010001011110 %
b11011 #
#110
b101111010001110001010001011110 5
b101111010001110001010001011110 @
1!
#112
0!
#113
b1011010101011010110000010110 4
b1011010101011010110000010110 A
bx 5
bx @
b11100 6
b11100 ?
b1011010101011010110000010110 %
b11100 #
#114
b1011010101011010110000010110 5
b1011010101011010110000010110 @
1!
#116
0!
#117
b11001010100111001001100110010 4
b11001010100111001001100110010 A
bx 5
bx @
b11101 6
b11101 ?
b11001010100111001001100110010 %
b11101 #
#118
b11001010100111001001100110010 5
b11001010100111001001100110010 @
1!
#120
0!
#121
b11000111101111011000100110001 4
b11000111101111011000100110001 A
bx 5
bx @
b11110 6
b11110 ?
b11000111101111011000100110001 %
b11110 #
#122
b11000111101111011000100110001 5
b11000111101111011000100110001 @
1!
#124
0!
#125
b1000010101110011100001110000101 4
b1000010101110011100001110000101 A
bx 5
bx @
b11111 6
b11111 ?
b1000010101110011100001110000101 %
b11111 #
#126
b1000010101110011100001110000101 5
b1000010101110011100001110000101 @
1!
#128
0!
#129
b100000000111011001000101000000 4
b100000000111011001000101000000 A
bx 5
bx @
b100000 6
b100000 ?
b100000000111011001000101000000 %
b100000 #
#130
b100000000111011001000101000000 5
b100000000111011001000101000000 @
1!
#132
0!
#133
b1001000001100100001000010010000 4
b1001000001100100001000010010000 A
bx 5
bx @
b100001 6
b100001 ?
b1001000001100100001000010010000 %
b100001 #
#134
b1001000001100100001000010010000 5
b1001000001100100001000010010000 @
1!
#136
0!
#137
b1101010101111000010001011010101 4
b1101010101111000010001011010101 A
bx 5
bx @
b100010 6
b100010 ?
b1101010101111000010001011010101 %
b100010 #
#138
b1101010101111000010001011010101 5
b1101010101111000010001011010101 @
1!
#140
0!
#141
b100111011001100110011001001110 4
b100111011001100110011001001110 A
bx 5
bx @
b100011 6
b100011 ?
b100111011001100110011001001110 %
b100011 #
#142
b100111011001100110011001001110 5
b100111011001100110011001001110 @
1!
#144
0!
#145
b100101100100000001111101001011 4
b100101100100000001111101001011 A
bx 5
bx @
b100100 6
b100100 ?
b100101100100000001111101001011 %
b100100 #
#146
b100101100100000001111101001011 5
b100101100100000001111101001011 @
1!
#148
0!
#149
b100110000011101110000001001 4
b100110000011101110000001001 A
bx 5
bx @
b100101 6
b100101 ?
b100110000011101110000001001 %
b100101 #
#150
b100110000011101110000001001 5
b100110000011101110000001001 @
1!
#152
0!
#153
b11010111100001110000000110 4
b11010111100001110000000110 A
bx 5
bx @
b100110 6
b100110 ?
b11010111100001110000000110 %
b100110 #
#154
b11010111100001110000000110 5
b11010111100001110000000110 @
1!
#156
0!
#157
b10100110100111110101100101001 4
b10100110100111110101100101001 A
bx 5
bx @
b100111 6
b100111 ?
b10100110100111110101100101001 %
b100111 #
#158
b10100110100111110101100101001 5
b10100110100111110101100101001 @
1!
#160
0!
#161
b1011010110011111110111010110101 4
b1011010110011111110111010110101 A
bx 5
bx @
b101000 6
b101000 ?
b1011010110011111110111010110101 %
b101000 #
#162
b1011010110011111110111010110101 5
b1011010110011111110111010110101 @
1!
#164
0!
#165
b110101010100110001010101101010 4
b110101010100110001010101101010 A
bx 5
bx @
b101001 6
b101001 ?
b110101010100110001010101101010 %
b101001 #
#166
b110101010100110001010101101010 5
b110101010100110001010101101010 @
1!
#168
0!
#169
b100010111010010100000001 4
b100010111010010100000001 A
bx 5
bx @
b101010 6
b101010 ?
b100010111010010100000001 %
b101010 #
#170
b100010111010010100000001 5
b100010111010010100000001 @
1!
#172
0!
#173
b101011101010110001111101010111 4
b101011101010110001111101010111 A
bx 5
bx @
b101011 6
b101011 ?
b101011101010110001111101010111 %
b101011 #
#174
b101011101010110001111101010111 5
b101011101010110001111101010111 @
1!
#176
0!
#177
b1000111011111111111010010001110 4
b1000111011111111111010010001110 A
bx 5
bx @
b101100 6
b101100 ?
b1000111011111111111010010001110 %
b101100 #
#178
b1000111011111111111010010001110 5
b1000111011111111111010010001110 @
1!
#180
0!
#181
b110011111000101011100101100111 4
b110011111000101011100101100111 A
bx 5
bx @
b101101 6
b101101 ?
b110011111000101011100101100111 %
b101101 #
#182
b110011111000101011100101100111 5
b110011111000101011100101100111 @
1!
#184
0!
#185
b1001000110000100010010010010001 4
b1001000110000100010010010010001 A
bx 5
bx @
b101110 6
b101110 ?
b1001000110000100010010010010001 %
b101110 #
#186
b1001000110000100010010010010001 5
b1001000110000100010010010010001 @
1!
#188
0!
#189
b1000010100001001011001010000101 4
b1000010100001001011001010000101 A
bx 5
bx @
b101111 6
b101111 ?
b1000010100001001011001010000101 %
b101111 #
#190
b1000010100001001011001010000101 5
b1000010100001001011001010000101 @
1!
#192
0!
#193
b110010101110011000010101100101 4
b110010101110011000010101100101 A
bx 5
bx @
b110000 6
b110000 ?
b110010101110011000010101100101 %
b110000 #
#194
b110010101110011000010101100101 5
b110010101110011000010101100101 @
1!
#196
0!
#197
b1111000110001010011000011110 4
b1111000110001010011000011110 A
bx 5
bx @
b110001 6
b110001 ?
b1111000110001010011000011110 %
b110001 #
#198
b1111000110001010011000011110 5
b1111000110001010011000011110 @
1!
#200
0!
#201
b1111100101101000101111011111001 4
b1111100101101000101111011111001 A
bx 5
bx @
b110010 6
b110010 ?
b1111100101101000101111011111001 %
b110010 #
#202
b1111100101101000101111011111001 5
b1111100101101000101111011111001 @
1!
#204
0!
#205
b1100010100101110011000011000101 4
b1100010100101110011000011000101 A
bx 5
bx @
b110011 6
b110011 ?
b1100010100101110011000011000101 %
b110011 #
#206
b1100010100101110011000011000101 5
b1100010100101110011000011000101 @
1!
#208
0!
#209
b1010000011000100101100110100000 4
b1010000011000100101100110100000 A
bx 5
bx @
b110100 6
b110100 ?
b1010000011000100101100110100000 %
b110100 #
#210
b1010000011000100101100110100000 5
b1010000011000100101100110100000 @
1!
#212
0!
#213
b110110001001011001101001101100 4
b110110001001011001101001101100 A
bx 5
bx @
b110101 6
b110101 ?
b110110001001011001101001101100 %
b110101 #
#214
b110110001001011001101001101100 5
b110110001001011001101001101100 @
1!
#216
0!
#217
b1011110000100000111100110111100 4
b1011110000100000111100110111100 A
bx 5
bx @
b110110 6
b110110 ?
b1011110000100000111100110111100 %
b110110 #
#218
b1011110000100000111100110111100 5
b1011110000100000111100110111100 @
1!
#220
0!
#221
b100010010001010000100101000100 4
b100010010001010000100101000100 A
bx 5
bx @
b110111 6
b110111 ?
b100010010001010000100101000100 %
b110111 #
#222
b100010010001010000100101000100 5
b100010010001010000100101000100 @
1!
#224
0!
#225
b1111010111000101000011011110101 4
b1111010111000101000011011110101 A
bx 5
bx @
b111000 6
b111000 ?
b1111010111000101000011011110101 %
b111000 #
#226
b1111010111000101000011011110101 5
b1111010111000101000011011110101 @
1!
#228
0!
#229
b1101101100000010011001011011011 4
b1101101100000010011001011011011 A
bx 5
bx @
b111001 6
b111001 ?
b1101101100000010011001011011011 %
b111001 #
#230
b1101101100000010011001011011011 5
b1101101100000010011001011011011 @
1!
#232
0!
#233
b1110001101001011111110011100011 4
b1110001101001011111110011100011 A
bx 5
bx @
b111010 6
b111010 ?
b1110001101001011111110011100011 %
b111010 #
#234
b1110001101001011111110011100011 5
b1110001101001011111110011100011 @
1!
#236
0!
#237
b1101011100010101000100111010111 4
b1101011100010101000100111010111 A
bx 5
bx @
b111011 6
b111011 ?
b1101011100010101000100111010111 %
b111011 #
#238
b1101011100010101000100111010111 5
b1101011100010101000100111010111 @
1!
#240
0!
#241
b101111001110101000000101011110 4
b101111001110101000000101011110 A
bx 5
bx @
b111100 6
b111100 ?
b101111001110101000000101011110 %
b111100 #
#242
b101111001110101000000101011110 5
b101111001110101000000101011110 @
1!
#244
0!
#245
b1001010100001111110111010010101 4
b1001010100001111110111010010101 A
bx 5
bx @
b111101 6
b111101 ?
b1001010100001111110111010010101 %
b111101 #
#246
b1001010100001111110111010010101 5
b1001010100001111110111010010101 @
1!
#248
0!
#249
b10111010111100110100000101 4
b10111010111100110100000101 A
bx 5
bx @
b111110 6
b111110 ?
b10111010111100110100000101 %
b111110 #
#250
b10111010111100110100000101 5
b10111010111100110100000101 @
1!
#252
0!
#253
b11100010010111101111100111000 4
b11100010010111101111100111000 A
bx 5
bx @
b111111 6
b111111 ?
b11100010010111101111100111000 %
b111111 #
#254
b11100010010111101111100111000 5
b11100010010111101111100111000 @
1!
#256
0!
#257
b1100001011110010010000011000010 4
b1100001011110010010000011000010 A
bx 5
bx @
b1000000 6
b1000000 ?
b1100001011110010010000011000010 %
b1000000 #
#258
b1100001011110010010000011000010 5
b1100001011110010010000011000010 @
1!
#260
0!
#261
b1010011111110010010101010100111 4
b1010011111110010010101010100111 A
bx 5
bx @
b1000001 6
b1000001 ?
b1010011111110010010101010100111 %
b1000001 #
#262
b1010011111110010010101010100111 5
b1010011111110010010101010100111 @
1!
#264
0!
#265
b1110111001100011000000011101 4
b1110111001100011000000011101 A
bx 5
bx @
b1000010 6
b1000010 ?
b1110111001100011000000011101 %
b1000010 #
#266
b1110111001100011000000011101 5
b1110111001100011000000011101 @
1!
#268
0!
#269
b1001110100000110001100110011101 4
b1001110100000110001100110011101 A
bx 5
bx @
b1000011 6
b1000011 ?
b1001110100000110001100110011101 %
b1000011 #
#270
b1001110100000110001100110011101 5
b1001110100000110001100110011101 @
1!
#272
0!
#273
b11111100100011001100100111111 4
b11111100100011001100100111111 A
bx 5
bx @
b1000100 6
b1000100 ?
b11111100100011001100100111111 %
b1000100 #
#274
b11111100100011001100100111111 5
b11111100100011001100100111111 @
1!
#276
0!
#277
b1000101010101010010010110001010 4
b1000101010101010010010110001010 A
bx 5
bx @
b1000101 6
b1000101 ?
b1000101010101010010010110001010 %
b1000101 #
#278
b1000101010101010010010110001010 5
b1000101010101010010010110001010 @
1!
#280
0!
#281
b1111100011011001100110111111000 4
b1111100011011001100110111111000 A
bx 5
bx @
b1000110 6
b1000110 ?
b1111100011011001100110111111000 %
b1000110 #
#282
b1111100011011001100110111111000 5
b1111100011011001100110111111000 @
1!
#284
0!
#285
b1110110010011100010010111101100 4
b1110110010011100010010111101100 A
bx 5
bx @
b1000111 6
b1000111 ?
b1110110010011100010010111101100 %
b1000111 #
#286
b1110110010011100010010111101100 5
b1110110010011100010010111101100 @
1!
#288
0!
#289
b1011000100100011000001110110001 4
b1011000100100011000001110110001 A
bx 5
bx @
b1001000 6
b1001000 ?
b1011000100100011000001110110001 %
b1001000 #
#290
b1011000100100011000001110110001 5
b1011000100100011000001110110001 @
1!
#292
0!
#293
b1010011000110101111110110100110 4
b1010011000110101111110110100110 A
bx 5
bx @
b1001001 6
b1001001 ?
b1010011000110101111110110100110 %
b1001001 #
#294
b1010011000110101111110110100110 5
b1010011000110101111110110100110 @
1!
#296
0!
#297
b1100111110100001010101011001111 4
b1100111110100001010101011001111 A
bx 5
bx @
b1001010 6
b1001010 ?
b1100111110100001010101011001111 %
b1001010 #
#298
b1100111110100001010101011001111 5
b1100111110100001010101011001111 @
1!
#300
0!
#301
b1100011110111001101000011000111 4
b1100011110111001101000011000111 A
bx 5
bx @
b1001011 6
b1001011 ?
b1100011110111001101000011000111 %
b1001011 #
#302
b1100011110111001101000011000111 5
b1100011110111001101000011000111 @
1!
#304
0!
#305
b1111110001101101101010011111100 4
b1111110001101101101010011111100 A
bx 5
bx @
b1001100 6
b1001100 ?
b1111110001101101101010011111100 %
b1001100 #
#306
b1111110001101101101010011111100 5
b1111110001101101101010011111100 @
1!
#308
0!
#309
b101101111001101011000001011011 4
b101101111001101011000001011011 A
bx 5
bx @
b1001101 6
b1001101 ?
b101101111001101011000001011011 %
b1001101 #
#310
b101101111001101011000001011011 5
b101101111001101011000001011011 @
1!
#312
0!
#313
b100111111000100010101101001111 4
b100111111000100010101101001111 A
bx 5
bx @
b1001110 6
b1001110 ?
b100111111000100010101101001111 %
b1001110 #
#314
b100111111000100010101101001111 5
b100111111000100010101101001111 @
1!
#316
0!
#317
b10111001111101100101000101110 4
b10111001111101100101000101110 A
bx 5
bx @
b1001111 6
b1001111 ?
b10111001111101100101000101110 %
b1001111 #
#318
b10111001111101100101000101110 5
b10111001111101100101000101110 @
1!
#320
0!
#321
b10110111001011110000000101101 4
b10110111001011110000000101101 A
bx 5
bx @
b1010000 6
b1010000 ?
b10110111001011110000000101101 %
b1010000 #
#322
b10110111001011110000000101101 5
b10110111001011110000000101101 @
1!
#324
0!
#325
b1100010011011110001101111000100 4
b1100010011011110001101111000100 A
bx 5
bx @
b1010001 6
b1010001 ?
b1100010011011110001101111000100 %
b1010001 #
#326
b1100010011011110001101111000100 5
b1100010011011110001101111000100 @
1!
#328
0!
#329
b10010010101110001100100100100 4
b10010010101110001100100100100 A
bx 5
bx @
b1010010 6
b1010010 ?
b10010010101110001100100100100 %
b1010010 #
#330
b10010010101110001100100100100 5
b10010010101110001100100100100 @
1!
#332
0!
#333
b110100000100011001111101101000 4
b110100000100011001111101101000 A
bx 5
bx @
b1010011 6
b1010011 ?
b110100000100011001111101101000 %
b1010011 #
#334
b110100000100011001111101101000 5
b110100000100011001111101101000 @
1!
#336
0!
#337
b110101111111110110000001101011 4
b110101111111110110000001101011 A
bx 5
bx @
b1010100 6
b1010100 ?
b110101111111110110000001101011 %
b1010100 #
#338
b110101111111110110000001101011 5
b110101111111110110000001101011 @
1!
#340
0!
#341
b10100011000111111111000101000 4
b10100011000111111111000101000 A
bx 5
bx @
b1010101 6
b1010101 ?
b10100011000111111111000101000 %
b1010101 #
#342
b10100011000111111111000101000 5
b10100011000111111111000101000 @
1!
#344
0!
#345
b1100101100100001001011111001011 4
b1100101100100001001011111001011 A
bx 5
bx @
b1010110 6
b1010110 ?
b1100101100100001001011111001011 %
b1010110 #
#346
b1100101100100001001011111001011 5
b1100101100100001001011111001011 @
1!
#348
0!
#349
b1000011000011101011111110000110 4
b1000011000011101011111110000110 A
bx 5
bx @
b1010111 6
b1010111 ?
b1000011000011101011111110000110 %
b1010111 #
#350
b1000011000011101011111110000110 5
b1000011000011101011111110000110 @
1!
#352
0!
#353
b110000100101100110011101100001 4
b110000100101100110011101100001 A
bx 5
bx @
b1011000 6
b1011000 ?
b110000100101100110011101100001 %
b1011000 #
#354
b110000100101100110011101100001 5
b110000100101100110011101100001 @
1!
#356
0!
#357
b1110010001010111111011011100100 4
b1110010001010111111011011100100 A
bx 5
bx @
b1011001 6
b1011001 ?
b1110010001010111111011011100100 %
b1011001 #
#358
b1110010001010111111011011100100 5
b1110010001010111111011011100100 @
1!
#360
0!
#361
b11101110000010010110100111011 4
b11101110000010010110100111011 A
bx 5
bx @
b1011010 6
b1011010 ?
b11101110000010010110100111011 %
b1011010 #
#362
b11101110000010010110100111011 5
b11101110000010010110100111011 @
1!
#364
0!
#365
b1001111011110010111011010011110 4
b1001111011110010111011010011110 A
bx 5
bx @
b1011011 6
b1011011 ?
b1001111011110010111011010011110 %
b1011011 #
#366
b1001111011110010111011010011110 5
b1001111011110010111011010011110 @
1!
#368
0!
#369
b1000100100001100110110110001001 4
b1000100100001100110110110001001 A
bx 5
bx @
b1011100 6
b1011100 ?
b1000100100001100110110110001001 %
b1011100 #
#370
b1000100100001100110110110001001 5
b1000100100001100110110110001001 @
1!
#372
0!
#373
b11111100000101000000000111111 4
b11111100000101000000000111111 A
bx 5
bx @
b1011101 6
b1011101 ?
b11111100000101000000000111111 %
b1011101 #
#374
b11111100000101000000000111111 5
b11111100000101000000000111111 @
1!
#376
0!
#377
b1011011011100101100000010110110 4
b1011011011100101100000010110110 A
bx 5
bx @
b1011110 6
b1011110 ?
b1011011011100101100000010110110 %
b1011110 #
#378
b1011011011100101100000010110110 5
b1011011011100101100000010110110 @
1!
#380
0!
#381
b1001110011011001111001110011100 4
b1001110011011001111001110011100 A
bx 5
bx @
b1011111 6
b1011111 ?
b1001110011011001111001110011100 %
b1011111 #
#382
b1001110011011001111001110011100 5
b1001110011011001111001110011100 @
1!
#384
0!
#385
b1000111111010010100011110001111 4
b1000111111010010100011110001111 A
bx 5
bx @
b1100000 6
b1100000 ?
b1000111111010010100011110001111 %
b1100000 #
#386
b1000111111010010100011110001111 5
b1000111111010010100011110001111 @
1!
#388
0!
#389
b110100111101011111101101101001 4
b110100111101011111101101101001 A
bx 5
bx @
b1100001 6
b1100001 ?
b110100111101011111101101101001 %
b1100001 #
#390
b110100111101011111101101101001 5
b110100111101011111101101101001 @
1!
#392
0!
#393
b1100001011011001001011111000010 4
b1100001011011001001011111000010 A
bx 5
bx @
b1100010 6
b1100010 ?
b1100001011011001001011111000010 %
b1100010 #
#394
b1100001011011001001011111000010 5
b1100001011011001001011111000010 @
1!
#396
0!
#397
b11110000010100100010000111100 4
b11110000010100100010000111100 A
bx 5
bx @
b1100011 6
b1100011 ?
b11110000010100100010000111100 %
b1100011 #
#398
b11110000010100100010000111100 5
b11110000010100100010000111100 @
1!
#400
0!
#401
b1010110111011010010110010101101 4
b1010110111011010010110010101101 A
bx 5
bx @
b1100100 6
b1100100 ?
b1010110111011010010110010101101 %
b1100100 #
#402
b1010110111011010010110010101101 5
b1010110111011010010110010101101 @
1!
#404
0!
#405
b1010010010001011010010110100100 4
b1010010010001011010010110100100 A
bx 5
bx @
b1100101 6
b1100101 ?
b1010010010001011010010110100100 %
b1100101 #
#406
b1010010010001011010010110100100 5
b1010010010001011010010110100100 @
1!
#408
0!
#409
b1111111110010101011100011111 4
b1111111110010101011100011111 A
bx 5
bx @
b1100110 6
b1100110 ?
b1111111110010101011100011111 %
b1100110 #
#410
b1111111110010101011100011111 5
b1111111110010101011100011111 @
1!
#412
0!
#413
b1001010100001100101011110010101 4
b1001010100001100101011110010101 A
bx 5
bx @
b1100111 6
b1100111 ?
b1001010100001100101011110010101 %
b1100111 #
#414
b1001010100001100101011110010101 5
b1001010100001100101011110010101 @
1!
#416
0!
#417
b1010110000010101011000110101100 4
b1010110000010101011000110101100 A
bx 5
bx @
b1101000 6
b1101000 ?
b1010110000010101011000110101100 %
b1101000 #
#418
b1010110000010101011000110101100 5
b1010110000010101011000110101100 @
1!
#420
0!
#421
b100001100111111001110001000011 4
b100001100111111001110001000011 A
bx 5
bx @
b1101001 6
b1101001 ?
b100001100111111001110001000011 %
b1101001 #
#422
b100001100111111001110001000011 5
b100001100111111001110001000011 @
1!
#424
0!
#425
b100011100011010000011001000111 4
b100011100011010000011001000111 A
bx 5
bx @
b1101010 6
b1101010 ?
b100011100011010000011001000111 %
b1101010 #
#426
b100011100011010000011001000111 5
b100011100011010000011001000111 @
1!
#428
0!
#429
b100111000101111111100101001110 4
b100111000101111111100101001110 A
bx 5
bx @
b1101011 6
b1101011 ?
b100111000101111111100101001110 %
b1101011 #
#430
b100111000101111111100101001110 5
b100111000101111111100101001110 @
1!
#432
0!
#433
b1111110100110101100110011111101 4
b1111110100110101100110011111101 A
bx 5
bx @
b1101100 6
b1101100 ?
b1111110100110101100110011111101 %
b1101100 #
#434
b1111110100110101100110011111101 5
b1111110100110101100110011111101 @
1!
#436
0!
#437
b1001101111101101111000010011 4
b1001101111101101111000010011 A
bx 5
bx @
b1101101 6
b1101101 ?
b1001101111101101111000010011 %
b1101101 #
#438
b1001101111101101111000010011 5
b1001101111101101111000010011 @
1!
#440
0!
#441
b1011100110010110000101110111001 4
b1011100110010110000101110111001 A
bx 5
bx @
b1101110 6
b1101110 ?
b1011100110010110000101110111001 %
b1101110 #
#442
b1011100110010110000101110111001 5
b1011100110010110000101110111001 @
1!
#444
0!
#445
b101000110001011101101001010001 4
b101000110001011101101001010001 A
bx 5
bx @
b1101111 6
b1101111 ?
b101000110001011101101001010001 %
b1101111 #
#446
b101000110001011101101001010001 5
b101000110001011101101001010001 @
1!
#448
0!
#449
b1011110011001101010000010111 4
b1011110011001101010000010111 A
bx 5
bx @
b1110000 6
b1110000 ?
b1011110011001101010000010111 %
b1110000 #
#450
b1011110011001101010000010111 5
b1011110011001101010000010111 @
1!
#452
0!
#453
b101100111010010100100101011001 4
b101100111010010100100101011001 A
bx 5
bx @
b1110001 6
b1110001 ?
b101100111010010100100101011001 %
b1110001 #
#454
b101100111010010100100101011001 5
b101100111010010100100101011001 @
1!
#456
0!
#457
b10111111011000010101100101111 4
b10111111011000010101100101111 A
bx 5
bx @
b1110010 6
b1110010 ?
b10111111011000010101100101111 %
b1110010 #
#458
b10111111011000010101100101111 5
b10111111011000010101100101111 @
1!
#460
0!
#461
b1010001000101001000011010100010 4
b1010001000101001000011010100010 A
bx 5
bx @
b1110011 6
b1110011 ?
b1010001000101001000011010100010 %
b1110011 #
#462
b1010001000101001000011010100010 5
b1010001000101001000011010100010 @
1!
#464
0!
#465
b1111101111111000111111011111011 4
b1111101111111000111111011111011 A
bx 5
bx @
b1110100 6
b1110100 ?
b1111101111111000111111011111011 %
b1110100 #
#466
b1111101111111000111111011111011 5
b1111101111111000111111011111011 @
1!
#468
0!
#469
b110010110011011001101101100101 4
b110010110011011001101101100101 A
bx 5
bx @
b1110101 6
b1110101 ?
b110010110011011001101101100101 %
b1110101 #
#470
b110010110011011001101101100101 5
b110010110011011001101101100101 @
1!
#472
0!
#473
b111001100001001000110101110011 4
b111001100001001000110101110011 A
bx 5
bx @
b1110110 6
b1110110 ?
b111001100001001000110101110011 %
b1110110 #
#474
b111001100001001000110101110011 5
b111001100001001000110101110011 @
1!
#476
0!
#477
b1010110100101000110110110101101 4
b1010110100101000110110110101101 A
bx 5
bx @
b1110111 6
b1110111 ?
b1010110100101000110110110101101 %
b1110111 #
#478
b1010110100101000110110110101101 5
b1010110100101000110110110101101 @
1!
#480
0!
